-------------------------------------------------------------------------------
Test set: com.bhaiti.kela.server.main.SpringBootRest2ApplicationTests
-------------------------------------------------------------------------------
Tests run: 1, Failures: 0, Errors: 0, Skipped: 0, Time elapsed: 3.644 s - in com.bhaiti.kela.server.main.SpringBootRest2ApplicationTests
